<define-tag pagetitle>DLA-3065-1 linux</define-tag>
<define-tag report_date>2022-7-1</define-tag>
<define-tag secrefs>CVE-2018-1108 CVE-2021-4149 CVE-2021-39713 CVE-2022-0494 CVE-2022-0812 CVE-2022-0854 CVE-2022-1011 CVE-2022-1012 CVE-2022-1016 CVE-2022-1198 CVE-2022-1199 CVE-2022-1353 CVE-2022-1516 CVE-2022-1729 CVE-2022-1734 CVE-2022-1974 CVE-2022-1975 CVE-2022-2153 CVE-2022-21123 CVE-2022-21125 CVE-2022-21166 CVE-2022-23036 CVE-2022-23037 CVE-2022-23038 CVE-2022-23039 CVE-2022-23040 CVE-2022-23041 CVE-2022-23042 CVE-2022-23960 CVE-2022-24958 CVE-2022-26490 CVE-2022-26966 CVE-2022-27223 CVE-2022-28356 CVE-2022-28390 CVE-2022-30594 CVE-2022-32250 CVE-2022-32296 CVE-2022-33981 Bug#922204</define-tag>
<define-tag packages>linux</define-tag>
<define-tag isvulnerable>yes</define-tag>
<define-tag fixed>yes</define-tag>
<define-tag fixed-section>no</define-tag>

#use wml::debian::security

