<define-tag pagetitle>DLA-3247-1 node-trim-newlines</define-tag>
<define-tag report_date>2022-12-23</define-tag>
<define-tag secrefs>CVE-2021-33623</define-tag>
<define-tag packages>node-trim-newlines</define-tag>
<define-tag isvulnerable>yes</define-tag>
<define-tag fixed>yes</define-tag>
<define-tag fixed-section>no</define-tag>

#use wml::debian::security
