<define-tag pagetitle>DLA-2950-1 python-scrapy</define-tag>
<define-tag report_date>2022-03-16</define-tag>
<define-tag secrefs>CVE-2021-41125 CVE-2022-0577</define-tag>
<define-tag packages>python-scrapy</define-tag>
<define-tag isvulnerable>yes</define-tag>
<define-tag fixed>yes</define-tag>
<define-tag fixed-section>no</define-tag>

#use wml::debian::security

