<define-tag pagetitle>DLA-3133-1 lighttpd</define-tag>
<define-tag report_date>2022-10-3</define-tag>
<define-tag secrefs>CVE-2022-37797</define-tag>
<define-tag packages>lighttpd</define-tag>
<define-tag isvulnerable>yes</define-tag>
<define-tag fixed>yes</define-tag>
<define-tag fixed-section>no</define-tag>

#use wml::debian::security

