<define-tag pagetitle>DLA-3154-1 node-xmldom</define-tag>
<define-tag report_date>2022-10-18</define-tag>
<define-tag secrefs>CVE-2022-37616 Bug#1021618</define-tag>
<define-tag packages>node-xmldom</define-tag>
<define-tag isvulnerable>yes</define-tag>
<define-tag fixed>yes</define-tag>
<define-tag fixed-section>no</define-tag>

#use wml::debian::security

