<define-tag pagetitle>DLA-2927-1 twisted</define-tag>
<define-tag report_date>2022-02-19</define-tag>
<define-tag secrefs>CVE-2020-10108 CVE-2020-10109 CVE-2022-21712 Bug#953950</define-tag>
<define-tag packages>twisted</define-tag>
<define-tag isvulnerable>yes</define-tag>
<define-tag fixed>yes</define-tag>
<define-tag fixed-section>no</define-tag>

#use wml::debian::security

