<define-tag pagetitle>DLA-3230-1 jqueryui</define-tag>
<define-tag report_date>2022-12-07</define-tag>
<define-tag secrefs>CVE-2021-41182 CVE-2021-41183 CVE-2021-41184 CVE-2022-31160 Bug#1015982</define-tag>
<define-tag packages>jqueryui</define-tag>
<define-tag isvulnerable>yes</define-tag>
<define-tag fixed>yes</define-tag>
<define-tag fixed-section>no</define-tag>

#use wml::debian::security

