<define-tag pagetitle>DLA-3090-1 php-horde-turba</define-tag>
<define-tag report_date>2022-08-31</define-tag>
<define-tag secrefs>CVE-2022-30287</define-tag>
<define-tag packages>php-horde-turba</define-tag>
<define-tag isvulnerable>yes</define-tag>
<define-tag fixed>yes</define-tag>
<define-tag fixed-section>no</define-tag>

#use wml::debian::security
