<define-tag pagetitle>DSA-4936-1 libuv1</define-tag>
<define-tag report_date>2021-7-05</define-tag>
<define-tag secrefs>CVE-2021-22918 Bug#990561</define-tag>
<define-tag packages>libuv1</define-tag>
<define-tag isvulnerable>yes</define-tag>
<define-tag fixed>yes</define-tag>
<define-tag fixed-section>no</define-tag>

#use wml::debian::security



</dl>
