<define-tag pagetitle>DSA-5019-1 wireshark</define-tag>
<define-tag report_date>2021-12-10</define-tag>
<define-tag secrefs>CVE-2021-22207 CVE-2021-22222 CVE-2021-22235 CVE-2021-39920 CVE-2021-39921 CVE-2021-39922 CVE-2021-39923 CVE-2021-39924 CVE-2021-39925 CVE-2021-39926 CVE-2021-39928 CVE-2021-39929</define-tag>
<define-tag packages>wireshark</define-tag>
<define-tag isvulnerable>yes</define-tag>
<define-tag fixed>yes</define-tag>
<define-tag fixed-section>no</define-tag>

#use wml::debian::security



</dl>
