<define-tag pagetitle>DSA-4800-1 libproxy</define-tag>
<define-tag report_date>2020-11-28</define-tag>
<define-tag secrefs>CVE-2020-25219 CVE-2020-26154 Bug#968366 Bug#971394</define-tag>
<define-tag packages>libproxy</define-tag>
<define-tag isvulnerable>yes</define-tag>
<define-tag fixed>yes</define-tag>
<define-tag fixed-section>no</define-tag>

#use wml::debian::security



</dl>
