<define-tag pagetitle>DSA-4634-1 opensmtpd</define-tag>
<define-tag report_date>2020-2-26</define-tag>
<define-tag secrefs>CVE-2020-8794 Bug#952453</define-tag>
<define-tag packages>opensmtpd</define-tag>
<define-tag isvulnerable>yes</define-tag>
<define-tag fixed>yes</define-tag>
<define-tag fixed-section>no</define-tag>

#use wml::debian::security



</dl>
