<define-tag pagetitle>DSA-4597-1 netty</define-tag>
<define-tag report_date>2020-1-03</define-tag>
<define-tag secrefs>CVE-2019-16869 Bug#941266</define-tag>
<define-tag packages>netty</define-tag>
<define-tag isvulnerable>yes</define-tag>
<define-tag fixed>yes</define-tag>
<define-tag fixed-section>no</define-tag>

#use wml::debian::security



</dl>
