<define-tag pagetitle>DSA-4660-1 awl</define-tag>
<define-tag report_date>2020-4-21</define-tag>
<define-tag secrefs>CVE-2020-11728 CVE-2020-11729 Bug#956650</define-tag>
<define-tag packages>awl</define-tag>
<define-tag isvulnerable>yes</define-tag>
<define-tag fixed>yes</define-tag>
<define-tag fixed-section>no</define-tag>

#use wml::debian::security



</dl>
