<define-tag pagetitle>DLA-2838-1 librecad</define-tag>
<define-tag report_date>2021-12-03</define-tag>
<define-tag secrefs>CVE-2021-21898 CVE-2021-21899 CVE-2021-21900</define-tag>
<define-tag packages>librecad</define-tag>
<define-tag isvulnerable>yes</define-tag>
<define-tag fixed>yes</define-tag>
<define-tag fixed-section>no</define-tag>

#use wml::debian::security

