<define-tag pagetitle>DSA-5422-1 jupyter-core</define-tag>
<define-tag report_date>2023-6-09</define-tag>
<define-tag secrefs>CVE-2022-39286 Bug#1023361</define-tag>
<define-tag packages>jupyter-core</define-tag>
<define-tag isvulnerable>yes</define-tag>
<define-tag fixed>yes</define-tag>
<define-tag fixed-section>no</define-tag>

#use wml::debian::security



</dl>
