<define-tag pagetitle>DSA-5435-2 trafficserver</define-tag>
<define-tag report_date>2023-6-22</define-tag>
<define-tag secrefs>CVE-2022-47184 CVE-2023-30631 CVE-2023-33933 Bug#1038248</define-tag>
<define-tag packages>trafficserver</define-tag>
<define-tag isvulnerable>yes</define-tag>
<define-tag fixed>yes</define-tag>
<define-tag fixed-section>no</define-tag>

#use wml::debian::security



</dl>
