<define-tag pagetitle>DSA-5373-1 node-sqlite3</define-tag>
<define-tag report_date>2023-3-14</define-tag>
<define-tag secrefs>CVE-2022-43441</define-tag>
<define-tag packages>node-sqlite3</define-tag>
<define-tag isvulnerable>yes</define-tag>
<define-tag fixed>yes</define-tag>
<define-tag fixed-section>no</define-tag>

#use wml::debian::security



</dl>
