<define-tag pagetitle>DSA-5485-1 firefox-esr</define-tag>
<define-tag report_date>2023-8-30</define-tag>
<define-tag secrefs>CVE-2023-4573 CVE-2023-4574 CVE-2023-4575 CVE-2023-4581 CVE-2023-4584</define-tag>
<define-tag packages>firefox-esr</define-tag>
<define-tag isvulnerable>yes</define-tag>
<define-tag fixed>yes</define-tag>
<define-tag fixed-section>no</define-tag>

#use wml::debian::security



</dl>
