<define-tag pagetitle>DSA-5427-1 webkit2gtk</define-tag>
<define-tag report_date>2023-6-15</define-tag>
<define-tag secrefs>CVE-2023-28204 CVE-2023-32373</define-tag>
<define-tag packages>webkit2gtk</define-tag>
<define-tag isvulnerable>yes</define-tag>
<define-tag fixed>yes</define-tag>
<define-tag fixed-section>no</define-tag>

#use wml::debian::security



</dl>
