<define-tag pagetitle>DSA-5326-1 nodejs</define-tag>
<define-tag report_date>2023-1-24</define-tag>
<define-tag secrefs>CVE-2022-32212 CVE-2022-32213 CVE-2022-32214 CVE-2022-32215 CVE-2022-35255 CVE-2022-35256 CVE-2022-43548</define-tag>
<define-tag packages>nodejs</define-tag>
<define-tag isvulnerable>yes</define-tag>
<define-tag fixed>yes</define-tag>
<define-tag fixed-section>no</define-tag>

#use wml::debian::security



</dl>
