<define-tag pagetitle>DLA-994-1 zziplib</define-tag>
<define-tag report_date>2017-6-20</define-tag>
<define-tag secrefs>CVE-2017-5974 CVE-2017-5975 CVE-2017-5976 CVE-2017-5978 CVE-2017-5979 CVE-2017-5980 CVE-2017-5981</define-tag>
<define-tag packages>zziplib</define-tag>
<define-tag isvulnerable>yes</define-tag>
<define-tag fixed>yes</define-tag>
<define-tag fixed-section>no</define-tag>

#use wml::debian::security

