<define-tag pagetitle>DLA-875-1 php5</define-tag>
<define-tag report_date>2017-3-27</define-tag>
<define-tag secrefs>CVE-2016-7478 CVE-2016-7479 CVE-2017-7272</define-tag>
<define-tag packages>php5</define-tag>
<define-tag isvulnerable>yes</define-tag>
<define-tag fixed>yes</define-tag>
<define-tag fixed-section>no</define-tag>

#use wml::debian::security

