<define-tag pagetitle>DLA-823-1 tomcat7</define-tag>
<define-tag report_date>2017-2-14</define-tag>
<define-tag secrefs>not yet available Bug#854551</define-tag>
<define-tag packages>tomcat7</define-tag>
<define-tag isvulnerable>yes</define-tag>
<define-tag fixed>yes</define-tag>
<define-tag fixed-section>no</define-tag>

#use wml::debian::security

