<define-tag pagetitle>DLA-802-1 openjdk-7</define-tag>
<define-tag report_date>2017-1-26</define-tag>
<define-tag packages>openjdk-7</define-tag>
<define-tag isvulnerable>yes</define-tag>
<define-tag fixed>yes</define-tag>
<define-tag fixed-section>no</define-tag>

#use wml::debian::security

