<define-tag pagetitle>DLA-944-1 openvpn</define-tag>
<define-tag report_date>2017-5-16</define-tag>
<define-tag secrefs>CVE-2017-7479</define-tag>
<define-tag packages>openvpn</define-tag>
<define-tag isvulnerable>yes</define-tag>
<define-tag fixed>yes</define-tag>
<define-tag fixed-section>no</define-tag>

#use wml::debian::security

