<define-tag pagetitle>DLA-3381-1 ghostscript</define-tag>
<define-tag report_date>2023-04-04</define-tag>
<define-tag secrefs>CVE-2023-28879</define-tag>
<define-tag packages>ghostscript</define-tag>
<define-tag isvulnerable>yes</define-tag>
<define-tag fixed>yes</define-tag>
<define-tag fixed-section>no</define-tag>

#use wml::debian::security
