<define-tag pagetitle>DLA-3288-1 curl</define-tag>
<define-tag report_date>2023-01-28</define-tag>
<define-tag secrefs>CVE-2022-27774 CVE-2022-32221 CVE-2022-35252 CVE-2022-43552</define-tag>
<define-tag packages>curl</define-tag>
<define-tag isvulnerable>yes</define-tag>
<define-tag fixed>yes</define-tag>
<define-tag fixed-section>no</define-tag>

#use wml::debian::security

