<define-tag pagetitle>DLA-3448-1 firefox-esr</define-tag>
<define-tag report_date>2023-06-08</define-tag>
<define-tag secrefs>CVE-2023-34414 CVE-2023-34416</define-tag>
<define-tag packages>firefox-esr</define-tag>
<define-tag isvulnerable>yes</define-tag>
<define-tag fixed>yes</define-tag>
<define-tag fixed-section>no</define-tag>

#use wml::debian::security

