<define-tag pagetitle>DLA-3496-1 lemonldap-ng</define-tag>
<define-tag report_date>2023-07-14</define-tag>
<define-tag secrefs>CVE-2023-28862</define-tag>
<define-tag packages>lemonldap-ng</define-tag>
<define-tag isvulnerable>yes</define-tag>
<define-tag fixed>yes</define-tag>
<define-tag fixed-section>no</define-tag>

#use wml::debian::security

