<define-tag pagetitle>DLA-3524-1 linux</define-tag>
<define-tag report_date>2023-08-10</define-tag>
<define-tag secrefs>CVE-2022-40982</define-tag>
<define-tag packages>linux</define-tag>
<define-tag isvulnerable>yes</define-tag>
<define-tag fixed>yes</define-tag>
<define-tag fixed-section>no</define-tag>

#use wml::debian::security

