<define-tag pagetitle>DLA-3498-1 bind9</define-tag>
<define-tag report_date>2023-07-19</define-tag>
<define-tag secrefs>CVE-2023-2828</define-tag>
<define-tag packages>bind9</define-tag>
<define-tag isvulnerable>yes</define-tag>
<define-tag fixed>yes</define-tag>
<define-tag fixed-section>no</define-tag>

#use wml::debian::security
