<define-tag pagetitle>DLA-3546-1 opendmarc</define-tag>
<define-tag report_date>2023-08-28</define-tag>
<define-tag secrefs>CVE-2020-12272</define-tag>
<define-tag packages>opendmarc</define-tag>
<define-tag isvulnerable>yes</define-tag>
<define-tag fixed>yes</define-tag>
<define-tag fixed-section>no</define-tag>

#use wml::debian::security
