<define-tag pagetitle>DLA-3516-1 burp</define-tag>
<define-tag report_date>2023-08-05</define-tag>
<define-tag secrefs>CVE-2017-16516 CVE-2022-24795 CVE-2023-33460 Bug#1040036</define-tag>
<define-tag packages>burp</define-tag>
<define-tag isvulnerable>yes</define-tag>
<define-tag fixed>yes</define-tag>
<define-tag fixed-section>no</define-tag>

#use wml::debian::security

