<define-tag pagetitle>DLA-3566-1 ruby-rails-html-sanitizer</define-tag>
<define-tag report_date>2023-09-13</define-tag>
<define-tag secrefs>CVE-2022-23517 CVE-2022-23518 CVE-2022-23519 CVE-2022-23520 Bug#1027153</define-tag>
<define-tag packages>ruby-rails-html-sanitizer</define-tag>
<define-tag isvulnerable>yes</define-tag>
<define-tag fixed>yes</define-tag>
<define-tag fixed-section>no</define-tag>

#use wml::debian::security

