<define-tag pagetitle>DLA-3473-1 docker-registry</define-tag>
<define-tag report_date>2023-06-29</define-tag>
<define-tag secrefs>CVE-2023-2253 Bug#1035956</define-tag>
<define-tag packages>docker-registry</define-tag>
<define-tag isvulnerable>yes</define-tag>
<define-tag fixed>yes</define-tag>
<define-tag fixed-section>no</define-tag>

#use wml::debian::security

