<define-tag pagetitle>DLA-3438-1 kamailio</define-tag>
<define-tag report_date>2023-05-30</define-tag>
<define-tag secrefs>CVE-2020-27507</define-tag>
<define-tag packages>kamailio</define-tag>
<define-tag isvulnerable>yes</define-tag>
<define-tag fixed>yes</define-tag>
<define-tag fixed-section>no</define-tag>

#use wml::debian::security
