<define-tag pagetitle>DLA-3499-1 libapache2-mod-auth-openidc</define-tag>
<define-tag report_date>2023-07-19</define-tag>
<define-tag secrefs>CVE-2021-39191 CVE-2022-23527 Bug#993648 Bug#1026444</define-tag>
<define-tag packages>libapache2-mod-auth-openidc</define-tag>
<define-tag isvulnerable>yes</define-tag>
<define-tag fixed>yes</define-tag>
<define-tag fixed-section>no</define-tag>

#use wml::debian::security

