<define-tag pagetitle>DLA-3561-1 node-cookiejar</define-tag>
<define-tag report_date>2023-09-11</define-tag>
<define-tag secrefs>CVE-2022-25901</define-tag>
<define-tag packages>node-cookiejar</define-tag>
<define-tag isvulnerable>yes</define-tag>
<define-tag fixed>yes</define-tag>
<define-tag fixed-section>no</define-tag>

#use wml::debian::security
