<define-tag pagetitle>DLA-3456-1 requests</define-tag>
<define-tag report_date>2023-6-18</define-tag>
<define-tag secrefs>CVE-2023-32681 Bug#1036693</define-tag>
<define-tag packages>requests</define-tag>
<define-tag isvulnerable>yes</define-tag>
<define-tag fixed>yes</define-tag>
<define-tag fixed-section>no</define-tag>

#use wml::debian::security

