<define-tag pagetitle>DLA-3421-1 thunderbird</define-tag>
<define-tag report_date>2023-05-15</define-tag>
<define-tag secrefs>CVE-2023-32205 CVE-2023-32206 CVE-2023-32207 CVE-2023-32211 CVE-2023-32212 CVE-2023-32213 CVE-2023-32215</define-tag>
<define-tag packages>thunderbird</define-tag>
<define-tag isvulnerable>yes</define-tag>
<define-tag fixed>yes</define-tag>
<define-tag fixed-section>no</define-tag>

#use wml::debian::security

