<define-tag pagetitle>DLA-3308-1 webkit2gtk</define-tag>
<define-tag report_date>2023-02-06</define-tag>
<define-tag secrefs>CVE-2022-42826 CVE-2023-23517 CVE-2023-23518</define-tag>
<define-tag packages>webkit2gtk</define-tag>
<define-tag isvulnerable>yes</define-tag>
<define-tag fixed>yes</define-tag>
<define-tag fixed-section>no</define-tag>

#use wml::debian::security

