<define-tag pagetitle>DLA-3560-1 libraw</define-tag>
<define-tag report_date>2023-09-10</define-tag>
<define-tag secrefs>CVE-2020-22628</define-tag>
<define-tag packages>libraw</define-tag>
<define-tag isvulnerable>yes</define-tag>
<define-tag fixed>yes</define-tag>
<define-tag fixed-section>no</define-tag>

#use wml::debian::security

