<define-tag pagetitle>DLA-3515-1 cjose</define-tag>
<define-tag report_date>2023-08-04</define-tag>
<define-tag secrefs>CVE-2023-37464 Bug#1041423</define-tag>
<define-tag packages>cjose</define-tag>
<define-tag isvulnerable>yes</define-tag>
<define-tag fixed>yes</define-tag>
<define-tag fixed-section>no</define-tag>

#use wml::debian::security

