<define-tag pagetitle>DLA-3403-1 linux</define-tag>
<define-tag report_date>2023-05-03</define-tag>
<define-tag secrefs>CVE-2022-2873 CVE-2022-3424 CVE-2022-3545 CVE-2022-3707 CVE-2022-4744 CVE-2022-36280 CVE-2022-41218 CVE-2022-45934 CVE-2022-47929 CVE-2023-0045 CVE-2023-0266 CVE-2023-0394 CVE-2023-0458 CVE-2023-0459 CVE-2023-0461 CVE-2023-1073 CVE-2023-1074 CVE-2023-1078 CVE-2023-1079 CVE-2023-1118 CVE-2023-1281 CVE-2023-1513 CVE-2023-1670 CVE-2023-1829 CVE-2023-1855 CVE-2023-1859 CVE-2023-1989 CVE-2023-1990 CVE-2023-1998 CVE-2023-2162 CVE-2023-2194 CVE-2023-23454 CVE-2023-23455 CVE-2023-23559 CVE-2023-26545 CVE-2023-28328 CVE-2023-30456 CVE-2023-30772 Bug#825141</define-tag>
<define-tag packages>linux</define-tag>
<define-tag isvulnerable>yes</define-tag>
<define-tag fixed>yes</define-tag>
<define-tag fixed-section>no</define-tag>

#use wml::debian::security

