<define-tag pagetitle>DLA-3501-1 renderdoc</define-tag>
<define-tag report_date>2023-07-25</define-tag>
<define-tag secrefs>CVE-2023-33863 CVE-2023-33864 CVE-2023-33865 Bug#1037208</define-tag>
<define-tag packages>renderdoc</define-tag>
<define-tag isvulnerable>yes</define-tag>
<define-tag fixed>yes</define-tag>
<define-tag fixed-section>no</define-tag>

#use wml::debian::security

