<define-tag pagetitle>DLA-3469-1 lua5.3</define-tag>
<define-tag report_date>2023-06-23</define-tag>
<define-tag secrefs>CVE-2019-6706 CVE-2020-24370 Bug#920321 Bug#988734</define-tag>
<define-tag packages>lua5.3</define-tag>
<define-tag isvulnerable>yes</define-tag>
<define-tag fixed>yes</define-tag>
<define-tag fixed-section>no</define-tag>

#use wml::debian::security

