<define-tag pagetitle>DLA-2475-1 pdfresurrect</define-tag>
<define-tag report_date>2020-12-01</define-tag>
<define-tag secrefs>CVE-2019-14934 CVE-2020-20740</define-tag>
<define-tag packages>pdfresurrect</define-tag>
<define-tag isvulnerable>yes</define-tag>
<define-tag fixed>yes</define-tag>
<define-tag fixed-section>no</define-tag>

#use wml::debian::security

