<define-tag pagetitle>DLA-2290-1 e2fsprogs</define-tag>
<define-tag report_date>2020-7-26</define-tag>
<define-tag secrefs>CVE-2019-5188</define-tag>
<define-tag packages>e2fsprogs</define-tag>
<define-tag isvulnerable>yes</define-tag>
<define-tag fixed>yes</define-tag>
<define-tag fixed-section>no</define-tag>

#use wml::debian::security

