<define-tag pagetitle>DLA-2385-1 linux-4.19</define-tag>
<define-tag report_date>2020-09-28</define-tag>
<define-tag secrefs>CVE-2019-3874 CVE-2019-19448 CVE-2019-19813 CVE-2019-19816 CVE-2020-10781 CVE-2020-12888 CVE-2020-14314 CVE-2020-14331 CVE-2020-14356 CVE-2020-14385 CVE-2020-14386 CVE-2020-14390 CVE-2020-16166 CVE-2020-25212 CVE-2020-25284 CVE-2020-25285 CVE-2020-25641 CVE-2020-26088 Bug#966846 Bug#966917 Bug#968567</define-tag>
<define-tag packages>linux-4.19</define-tag>
<define-tag isvulnerable>yes</define-tag>
<define-tag fixed>yes</define-tag>
<define-tag fixed-section>no</define-tag>

#use wml::debian::security

