<define-tag pagetitle>DLA-2173-1 graphicsmagick</define-tag>
<define-tag report_date>2020-04-14</define-tag>
<define-tag secrefs>CVE-2020-10938</define-tag>
<define-tag packages>graphicsmagick</define-tag>
<define-tag isvulnerable>yes</define-tag>
<define-tag fixed>yes</define-tag>
<define-tag fixed-section>no</define-tag>

#use wml::debian::security

