<define-tag pagetitle>DLA-1458-1 xml-security-c</define-tag>
<define-tag report_date>2018-8-6</define-tag>
<define-tag secrefs>not yet available Bug#905332</define-tag>
<define-tag packages>xml-security-c</define-tag>
<define-tag isvulnerable>yes</define-tag>
<define-tag fixed>yes</define-tag>
<define-tag fixed-section>no</define-tag>

#use wml::debian::security

