<define-tag pagetitle>DLA-1322-1 graphicsmagick</define-tag>
<define-tag report_date>2018-3-28</define-tag>
<define-tag secrefs>CVE-2017-18219 CVE-2017-18220 CVE-2017-18229 CVE-2017-18230 CVE-2017-18231 CVE-2018-9018</define-tag>
<define-tag packages>graphicsmagick</define-tag>
<define-tag isvulnerable>yes</define-tag>
<define-tag fixed>yes</define-tag>
<define-tag fixed-section>no</define-tag>

#use wml::debian::security

