<define-tag pagetitle>DLA-1557-1 tiff</define-tag>
<define-tag report_date>2018-10-28</define-tag>
<define-tag secrefs>CVE-2018-17100 CVE-2018-17101 CVE-2018-18557</define-tag>
<define-tag packages>tiff</define-tag>
<define-tag isvulnerable>yes</define-tag>
<define-tag fixed>yes</define-tag>
<define-tag fixed-section>no</define-tag>

#use wml::debian::security

