<define-tag pagetitle>DSA-5214-1 kicad</define-tag>
<define-tag report_date>2022-8-21</define-tag>
<define-tag secrefs>CVE-2022-23803 CVE-2022-23804 CVE-2022-23946 CVE-2022-23947</define-tag>
<define-tag packages>kicad</define-tag>
<define-tag isvulnerable>yes</define-tag>
<define-tag fixed>yes</define-tag>
<define-tag fixed-section>no</define-tag>

#use wml::debian::security



</dl>
