<define-tag pagetitle>DSA-5104-1 chromium</define-tag>
<define-tag report_date>2022-3-18</define-tag>
<define-tag secrefs>CVE-2022-0971 CVE-2022-0972 CVE-2022-0973 CVE-2022-0974 CVE-2022-0975 CVE-2022-0976 CVE-2022-0977 CVE-2022-0978 CVE-2022-0979 CVE-2022-0980</define-tag>
<define-tag packages>chromium</define-tag>
<define-tag isvulnerable>yes</define-tag>
<define-tag fixed>yes</define-tag>
<define-tag fixed-section>no</define-tag>

#use wml::debian::security



</dl>
