<define-tag pagetitle>DSA-5147-1 dpkg</define-tag>
<define-tag report_date>2022-5-25</define-tag>
<define-tag secrefs>CVE-2022-1664</define-tag>
<define-tag packages>dpkg</define-tag>
<define-tag isvulnerable>yes</define-tag>
<define-tag fixed>yes</define-tag>
<define-tag fixed-section>no</define-tag>

#use wml::debian::security



</dl>
