<define-tag pagetitle>DSA-5173-1 linux</define-tag>
<define-tag report_date>2022-7-03</define-tag>
<define-tag secrefs>CVE-2021-4197 CVE-2022-0494 CVE-2022-0812 CVE-2022-0854 CVE-2022-1011 CVE-2022-1012 CVE-2022-1016 CVE-2022-1048 CVE-2022-1195 CVE-2022-1198 CVE-2022-1199 CVE-2022-1204 CVE-2022-1205 CVE-2022-1353 CVE-2022-1419 CVE-2022-1516 CVE-2022-1652 CVE-2022-1729 CVE-2022-1734 CVE-2022-1974 CVE-2022-1975 CVE-2022-2153 CVE-2022-21123 CVE-2022-21125 CVE-2022-21166 CVE-2022-23960 CVE-2022-26490 CVE-2022-27666 CVE-2022-28356 CVE-2022-28388 CVE-2022-28389 CVE-2022-28390 CVE-2022-29581 CVE-2022-30594 CVE-2022-32250 CVE-2022-32296 CVE-2022-33981 Bug#922204 Bug#1006346 Bug#1013299</define-tag>
<define-tag packages>linux</define-tag>
<define-tag isvulnerable>yes</define-tag>
<define-tag fixed>yes</define-tag>
<define-tag fixed-section>no</define-tag>

#use wml::debian::security



</dl>
