<define-tag pagetitle>DSA-5243-1 lighttpd</define-tag>
<define-tag report_date>2022-9-28</define-tag>
<define-tag secrefs>CVE-2022-37797 CVE-2022-41556</define-tag>
<define-tag packages>lighttpd</define-tag>
<define-tag isvulnerable>yes</define-tag>
<define-tag fixed>yes</define-tag>
<define-tag fixed-section>no</define-tag>

#use wml::debian::security



</dl>
