<define-tag pagetitle>DLA-700-1 libxslt</define-tag>
<define-tag report_date>2016-11-5</define-tag>
<define-tag secrefs>CVE-2016-4738 Bug#842570</define-tag>
<define-tag packages>libxslt</define-tag>
<define-tag isvulnerable>yes</define-tag>
<define-tag fixed>yes</define-tag>
<define-tag fixed-section>no</define-tag>

#use wml::debian::security

