<define-tag pagetitle>DLA-584-1 libsys-syslog-perl</define-tag>
<define-tag report_date>2016-8-4</define-tag>
<define-tag secrefs>CVE-2016-1238</define-tag>
<define-tag packages>libsys-syslog-perl</define-tag>
<define-tag isvulnerable>yes</define-tag>
<define-tag fixed>yes</define-tag>
<define-tag fixed-section>no</define-tag>

#use wml::debian::security

