<define-tag pagetitle>DLA-482-1 libgd2</define-tag>
<define-tag report_date>2016-5-19</define-tag>
<define-tag secrefs>CVE-2015-8874 Bug#824627</define-tag>
<define-tag packages>libgd2</define-tag>
<define-tag isvulnerable>yes</define-tag>
<define-tag fixed>yes</define-tag>
<define-tag fixed-section>no</define-tag>

#use wml::debian::security

